Spatial analysis of public health data - 2 Raster and reproducibility
…
population <- read_csv("prac2_data/nga_admpop_adm2_2020.csv")%>%
  clean_names(.)

# check the type of column

Datatypelist <- population %>% 
  summarise_all(class) %>%
  pivot_longer(everything(), 
               names_to="All_variables", 
               values_to="Variable_class")

Datatypelist

# A tibble: 78 × 2
   All_variables Variable_class
   <chr>         <chr>         
 1 adm0_name     character     
 2 adm0_pcode    character     
 3 adm1_name     character     
 4 adm1_pcode    character     
 5 adm2_name     character     
 6 adm2_pcode    character     
 7 f_tl          numeric       
 8 m_tl          numeric       
 9 t_tl          numeric       
10 f_00_04       numeric       
# … with 68 more rows
…
